Einführung in R
…
+ Wenn wir den Anteil der Ausprägung einer kategorialen Variable an allen Ausprägungen der Variable bestimmen möchten, dann sind die Berechnungsschritte immer dieselben, zuerst zählen wir mit `count()`, dann berechnen wir den Anteil als Anzahl der Ausprägung in Relation zur Summe der Anzahlen der Ausprägungen: `mutate(share = n / sum(n))`.

+ Wir könnten eine eigene Funktion schreiben, die diese beiden Schritte für uns durchführt.

---
#Die Datenanalyse mit Funktionen vereinfachen

##Beispieldatensatz

```r
(gapminder <- gapminder::gapminder)
```

```
#> # A tibble: 1,704 x 6
#>    country     continent  year lifeExp      pop gdpPercap
#>    <fct>       <fct>     <int>   <dbl>    <int>     <dbl>
#>  1 Afghanistan Asia       1952    28.8  8425333      779.
#>  2 Afghanistan Asia       1957    30.3  9240934      821.
#>  3 Afghanistan Asia       1962    32.0 10267083      853.
#>  4 Afghanistan Asia       1967    34.0 11537966      836.
#>  5 Afghanistan Asia       1972    36.1 13079460      740.
#>  6 Afghanistan Asia       1977    38.4 14880372      786.
#>  7 Afghanistan Asia       1982    39.9 12881816      978.
#>  8 Afghanistan Asia       1987    40.8 13867957      852.
#>  9 Afghanistan Asia       1992    41.7 16317921      649.
#> 10 Afghanistan Asia       1997    41.8 22227415      635.
#> # ... with 1,694 more rows
```
…
---
class: font90
# Anteile als Funktion

## Zweiter Versuch

+ Die Funktion funktioniert jetzt auch mit der Variable `country`...

```r
my_share_function(country)
```

```
#> # A tibble: 142 x 3
#>    country         n   share
#>    <fct>       <int>   <dbl>
#>  1 Afghanistan    12 0.00704
#>  2 Albania        12 0.00704
#>  3 Algeria        12 0.00704
#>  4 Angola         12 0.00704
#>  5 Argentina      12 0.00704
#>  6 Australia      12 0.00704
#>  7 Austria        12 0.00704
#>  8 Bahrain        12 0.00704
#>  9 Bangladesh     12 0.00704
#> 10 Belgium        12 0.00704
#> # ... with 132 more rows
```
…
