(F)AQs
…
Die Lösung

TidyTuesday-Daten bestehen häufig aus mehreren Datensätzen. Mit dem
$-Operator können diese extrahiert werden:

colony <- daten$colony

stressor <- daten$stressor

Dann können die Objekte wie gewohnt bearbeitet werden:

colony |> 
          filter(colony_lost > 1000)

## # A tibble: 851 x 10
##     year months        state     colony_n colony_max colony_lost colony_lost_pct
##    <dbl> <chr>         <chr>        <dbl>      <dbl>       <dbl>           <dbl>
##  1  2015 January-March Alabama       7000       7000        1800              26
##  2  2015 January-March Arizona      35000      35000        4600              13
##  3  2015 January-March Arkansas     13000      14000        1500              11
##  4  2015 January-March Californ~  1440000    1690000      255000              15
##  5  2015 January-March Colorado      3500      12500        1500              12
##  6  2015 January-March Florida     305000     315000       42000              13
##  7  2015 January-March Georgia     104000     105000       14500              14
##  8  2015 January-March Idaho        81000      88000        3700               4
##  9  2015 January-March Illinois      6000      10500        4200              40
## 10  2015 January-March Indiana       9000       9500        2100              22
## # ... with 841 more rows, and 3 more variables: colony_added <dbl>,
## #   colony_reno <dbl>, colony_reno_pct <dbl>
…
